Project 1: Exploratory Data Analysis
…
1. Tidying

Data is already tidy, tidying used in correlation heatmap.

2. Joining/Merging

# Creation of merged data set
Merged_Data <- hate_crimes %>% full_join(police_killings, by = c(state_abbrev = "state")) %>% 
    na.omit
Merged_Data %>% na.omit

## # A tibble: 400 x 46
##    state state_abbrev median_house_inc share_unemp_seas share_pop_metro
##    <chr> <chr>                   <int>            <dbl>           <dbl>
##  1 Alab… AL                      42278            0.06             0.64
##  2 Alab… AL                      42278            0.06             0.64
##  3 Alab… AL                      42278            0.06             0.64
##  4 Alab… AL                      42278            0.06             0.64
##  5 Alab… AL                      42278            0.06             0.64
##  6 Alab… AL                      42278            0.06             0.64
##  7 Alab… AL                      42278            0.06             0.64
##  8 Alab… AL                      42278            0.06             0.64
##  9 Alas… AK                      67629            0.064            0.63
## 10 Alas… AK                      67629            0.064            0.63
## # … with 390 more rows, and 41 more variables: share_pop_hs <dbl>,
## #   share_non_citizen <dbl>, share_white_poverty <dbl>, gini_index <dbl>,
## #   share_non_white <dbl>, share_vote_trump <dbl>,
## #   hate_crimes_per_100k_splc <dbl>, avg_hatecrimes_per_100k_fbi <dbl>,
## #   name <chr>, age <int>, gender <chr>, raceethnicity <chr>, month <chr>,
## #   day <int>, year <int>, streetaddress <chr>, city <chr>, latitude <dbl>,
## #   longitude <dbl>, state_fp <int>, county_fp <int>, tract_ce <int>,
## #   geo_id <dbl>, county_id <int>, namelsad <chr>, lawenforcementagency <chr>,
## #   cause <chr>, armed <chr>, pop <int>, share_white <dbl>, share_black <dbl>,
…
3. Wrangling

# Usage of the 6 core dplyer functions (filter, select,
# arrange, group_by, mutate, summarize)
Merged_Data %>% filter(state_abbrev == "TX") %>% summarize(victims = n())

## # A tibble: 1 x 1
##   victims
##     <int>
## 1      37

Merged_Data %>% select(state_abbrev, raceethnicity, armed)

## # A tibble: 400 x 3
##    state_abbrev raceethnicity   armed  
##    <chr>        <chr>           <chr>  
##  1 AL           Black           No     
##  2 AL           Black           Knife  
##  3 AL           Black           No     
##  4 AL           White           Firearm
##  5 AL           White           Firearm
##  6 AL           White           Other  
##  7 AL           Black           Firearm
##  8 AL           White           No     
##  9 AK           Hispanic/Latino Knife  
## 10 AK           Native American Knife  
## # … with 390 more rows

Merged_Data %>% arrange(-avg_hatecrimes_per_100k_fbi) %>% select(state_abbrev, 
    avg_hatecrimes_per_100k_fbi) %>% distinct(state_abbrev, .keep_all = TRUE)

## # A tibble: 43 x 2
##    state_abbrev avg_hatecrimes_per_100k_fbi
##    <chr>                              <dbl>
##  1 DC                                 11.0 
##  2 MA                                  4.80
##  3 NJ                                  4.41
##  4 KY                                  4.21
##  5 WA                                  3.82
##  6 CT                                  3.77
##  7 MN                                  3.61
##  8 AZ                                  3.41
##  9 OR                                  3.39
## 10 OH                                  3.24
## # … with 33 more rows

Merged_Data %>% group_by(state_abbrev, raceethnicity) %>% summarize(count = n())

## # A tibble: 95 x 3
## # Groups:   state_abbrev [43]
##    state_abbrev raceethnicity   count
##    <chr>        <chr>           <int>
##  1 AK           Hispanic/Latino     1
##  2 AK           Native American     1
##  3 AL           Black               4
##  4 AL           White               4
##  5 AR           Black               1
##  6 AR           White               2
##  7 AZ           Black               1
##  8 AZ           Hispanic/Latino     6
##  9 AZ           Native American     2
## 10 AZ           White              13
## # … with 85 more rows

Merged_Data %>% mutate(share_non_poverty_white = 1 - share_white_poverty)

## # A tibble: 400 x 47
##    state state_abbrev median_house_inc share_unemp_seas share_pop_metro
##    <chr> <chr>                   <int>            <dbl>           <dbl>
##  1 Alab… AL                      42278            0.06             0.64
##  2 Alab… AL                      42278            0.06             0.64
##  3 Alab… AL                      42278            0.06             0.64
##  4 Alab… AL                      42278            0.06             0.64
##  5 Alab… AL                      42278            0.06             0.64
##  6 Alab… AL                      42278            0.06             0.64
##  7 Alab… AL                      42278            0.06             0.64
##  8 Alab… AL                      42278            0.06             0.64
##  9 Alas… AK                      67629            0.064            0.63
## 10 Alas… AK                      67629            0.064            0.63
## # … with 390 more rows, and 42 more variables: share_pop_hs <dbl>,
## #   share_non_citizen <dbl>, share_white_poverty <dbl>, gini_index <dbl>,
## #   share_non_white <dbl>, share_vote_trump <dbl>,
## #   hate_crimes_per_100k_splc <dbl>, avg_hatecrimes_per_100k_fbi <dbl>,
## #   name <chr>, age <int>, gender <chr>, raceethnicity <chr>, month <chr>,
## #   day <int>, year <int>, streetaddress <chr>, city <chr>, latitude <dbl>,
## #   longitude <dbl>, state_fp <int>, county_fp <int>, tract_ce <int>,
## #   geo_id <dbl>, county_id <int>, namelsad <chr>, lawenforcementagency <chr>,
## #   cause <chr>, armed <chr>, pop <int>, share_white <dbl>, share_black <dbl>,
…
Merged_Data %>% group_by(raceethnicity, armed) %>% summarize(mean_household_income = mean(h_income), 
    median_household_income = median(h_income), minimum_household_income = min(h_income), 
    maximum_household_income = max(h_income), Std_Dev_household_income = sd(h_income))

## # A tibble: 26 x 7
## # Groups:   raceethnicity [5]
##    raceethnicity armed mean_household_… median_househol… minimum_househo…
##    <chr>         <chr>            <dbl>            <dbl>            <int>
##  1 Asian/Pacifi… Fire…           63936.           41385             38958
##  2 Asian/Pacifi… Knife           36356            36356             15212
##  3 Asian/Pacifi… No              46206.           46206.            41786
##  4 Asian/Pacifi… Vehi…           49973            49973             49973
##  5 Black         Fire…           40209.           35616.            11378
##  6 Black         Knife           43986.           50268             19988
##  7 Black         No              48151.           35993             17545
##  8 Black         Non-…           63444            63444             63444
##  9 Black         Other           40863            36070             20556
## 10 Black         Vehi…           36387.           37109             10290
## # … with 16 more rows, and 2 more variables: maximum_household_income <int>,
## #   Std_Dev_household_income <dbl>
…
